.....................
----------------------------------------------------------------------
Ran 21 tests in 0.021s

OK
Name             Stmts   Miss Branch BrPart  Cover   Missing
------------------------------------------------------------
Collatz.py          38      2     12      0    96%   52-53
TestCollatz.py      84      0      0      0   100%
------------------------------------------------------------
TOTAL              122      2     12      0    99%
